<!DOCTYPE svg>
<svg xmlns="http://www.w3.org/2000/svg" id="svg2" viewBox="0 0 100 100" version="1.1">
    <polygon id="rect001" fill="lightgray" stroke="darkgray" stroke-width="0.5" 
        points="10.0,15.0 40.0,15.0 40.0,35.0 10.0,35.0"/>
    <path id="path002" fill="lightblue" stroke="darkblue" stroke-width="0.5" 
        d="M 20.0,18.0 L 50.0,15.0 60.0,45.0 20.0,37.0 Z 
           M 30.0,21.0 L 43.0,20.0 50.0,40.0 30.0,36.0 Z"/>
</svg>
