<?xml version="1.0" encoding="UTF-8" standalone="no"?>
<svg id="svg2" xmlns="http://www.w3.org/2000/svg" viewBox="0 0 150 150" version="1.1">
    <g style="fill: red; stroke: blue; stroke-width: 3" >
        <g stroke-width="0.5">
            <g stroke="red">
                <g fill="green" stroke-width="1">
                    <rect fill="yellow" 
                            x="10" y="15" width="30" height="20"/>
                </g>
            </g>
        </g>
    </g>
</svg>
